module gitea.com/huiyifyj/readability

require (
	github.com/konsorten/go-windows-terminal-sequences v1.0.2 // indirect
	github.com/sergi/go-diff v1.0.0
	github.com/sirupsen/logrus v1.4.2
	github.com/spf13/cobra v0.0.4
	github.com/stretchr/testify v1.3.0 // indirect
	golang.org/x/net v0.0.0-20190520210107-018c4d40a106
	golang.org/x/sys v0.0.0-20190520201301-c432e742b0af // indirect
)

go 1.14
